<svg width="527" height="55" viewBox="0 0 527 55" fill="none" xmlns="http://www.w3.org/2000/svg">
<path d="M526.286 0.5L510.121 44.9553C508.037 50.6855 502.591 54.5 496.494 54.5H30.5064C24.4091 54.5 18.9631 50.6855 16.8794 44.9553L0.71385 0.5H1.33986L18.686 41.98C21.0974 47.7462 26.7359 51.5 32.986 51.5H494.014C500.264 51.5 505.903 47.7462 508.314 41.98L525.66 0.5H526.286Z" fill="white" stroke="#D1C7C7"/>
</svg>
