<svg width="12" height="20" viewBox="0 0 12 20" fill="none" xmlns="http://www.w3.org/2000/svg">
<path fill-rule="evenodd" clip-rule="evenodd" d="M0.183594 2.13756L2.05444 0.266716L11.4805 9.69281L2.05444 19.1189L0.183594 17.248L7.73884 9.69281L0.183594 2.13756Z" fill="white"/>
</svg>
