<svg width="41" height="41" viewBox="0 0 41 41" fill="none" xmlns="http://www.w3.org/2000/svg">
<path d="M20.5225 0.797363C9.46595 0.797363 0.522461 9.74085 0.522461 20.7974C0.522461 31.8539 9.46595 40.7974 20.5225 40.7974C31.579 40.7974 40.5225 31.8539 40.5225 20.7974C40.5225 9.74085 31.579 0.797363 20.5225 0.797363ZM15.4119 30.8219H11.0384V16.7187H15.4119V30.8219ZM13.2006 14.8514C11.7755 14.8514 10.6453 13.6721 10.6453 12.247C10.6453 10.8219 11.7755 9.64257 13.2006 9.64257C14.6257 9.64257 15.7559 10.8219 15.7559 12.247C15.805 13.7212 14.6257 14.8514 13.2006 14.8514ZM31.7755 30.8219H27.4512C27.4512 30.8219 27.4512 25.4657 27.4512 23.4018C27.4512 21.387 26.665 20.2568 25.0925 20.2568C23.3234 20.2568 22.4389 21.4362 22.4389 23.4018C22.4389 25.5639 22.4389 30.8219 22.4389 30.8219H18.262V16.7187H22.4389V18.6352C22.4389 18.6352 23.7166 16.3256 26.665 16.3256C29.6625 16.3256 31.7755 18.1438 31.7755 21.9276C31.7755 25.6622 31.7755 30.8219 31.7755 30.8219Z" fill="white"/>
</svg>
