<svg width="40" height="40" viewBox="0 0 40 40" fill="none" xmlns="http://www.w3.org/2000/svg">
<circle cx="20" cy="20" r="17" stroke="#D7D7D7" stroke-width="6"/>
<path d="M25.2458 18.268C26.5792 19.0378 26.5792 20.9623 25.2458 21.7321L18.8769 25.4092C17.5436 26.179 15.8769 25.2168 15.8769 23.6772V16.323C15.8769 14.7834 17.5436 13.8211 18.8769 14.5909L25.2458 18.268Z" fill="#D7D7D7"/>
</svg>
